state=
{
	id=163
	name="STATE_163"
	manpower = 18000
	
	state_category = enclave
	
	history={
		owner = CRO
		buildings = {
			infrastructure = 5
			3943 = {
				naval_base = 1
			}
		}
		add_core_of = CRO
		add_claim_by = SER
	} 
	provinces={	
		3943 
	}
}
