
state={
	id=24
	name="STATE_24"
	manpower = 347550
	
	
	state_category = reclaimed_area

	history={
		owner = FRA
		victory_points = {
			3671 3
		}
		victory_points = {
			512 3
		}
		buildings = {
			infrastructure = 2
			industrial_complex = 2

		}
		add_core_of = FRA
	}

	provinces={
		512 3493 3671 6518 6533 6688 9492 11611 11631 
	}
}
