
state={
	id=30
	name="STATE_30"
	manpower = 399435

	state_category = reclaimed_area

	history={
		owner = FRA
		victory_points = {
			11465 5
		}
		
		buildings = {
			infrastructure = 3
			industrial_complex = 1
			dockyard = 1
			air_base = 2
		}
		add_core_of = FRA
	}

	provinces={
		503 527 3495 3509 3523 9478 9867 11463 11465 11613 11616 
	}
}
