
state={
	id=420
	name="STATE_420"
	manpower = 1314948
	
	state_category = rural

	history={
		owner = AZR
		victory_points = {
			7969 5
		}
		victory_points = {
			4901 3
		}
		buildings = {
			infrastructure = 3
		}
		add_core_of = PER
		add_core_of = AZR
	}

	provinces={
		4553 4609 4637 4901 7969 10454 10523 
	}
}
