
state={
	id=609
	name="STATE_609" # East Hebei
	manpower = 8042
	
	state_category = depopulated_area

	history={
		owner = BEI
		add_core_of = BEI
		buildings = {
			infrastructure = 0
			arms_factory = 0
			industrial_complex = 0
		}

	}

	provinces={
		900 1052 3830 3900 6969 11822 12043 
	}
}
