state=
{
	id=650
	name="STATE_650"
	manpower=41
	state_category = tiny_island
	
	history=
	{
		owner = KAM
		victory_points = {
			13067 1 
		}
		buildings = {
			infrastructure = 1
			13067 = {
				naval_base = 1
			}
		}
	}
	provinces=
	{
13067 	}
}
