state={
	id=808
	name="STATE_808"
	history={
		owner = UNT
		buildings = {
			infrastructure = 1
		}
		add_core_of = UNT
	}
	provinces={
		1552 8054 
	}
	manpower=781555
	buildings_max_level_factor=1.000
	state_category=rural
}
