state={
	id=87
	name="STATE_87"
	manpower = 2632000
	
	state_category = town
	history={
		owner = PPR
		buildings = {
			infrastructure = 6
			industrial_complex = 2
		}
		victory_points = {
			9508 10
		}
		add_core_of = PPR
		add_core_of = POL
	}

	provinces={
		493 584 9439 9508 9546 11428 11515 
	}
}
