state={
	id=89
	name="STATE_89"

	history={
		victory_points = {
			11411 1
		}
		#victory_points = {
		#	6483 1
		#}
		owner = POL
		buildings = {
			infrastructure = 0
			air_base = 0

		}
		add_core_of = POL
		add_core_of = UKR

	}

	provinces={
		3743 6431 6460 6483 9425 11411 11550 
	}
	manpower=21803
	buildings_max_level_factor=1.000
	state_category=depopulated_area
}
