state={
	id=97
	name="STATE_97"

	history={
		owner = PPR
		victory_points = {
			11301 3
		}
		victory_points = {
			3393 3
		}
		victory_points = {
			3254 1
		}
		buildings = {
			infrastructure = 5
			industrial_complex = 1
			air_base = 3

		}
		add_core_of = PPR
		add_core_of = POL

	}

	provinces={
		290 347 400 3254 11247 11274 11301 11329 11357 
	}
	manpower=11572
	buildings_max_level_factor=1.000
	state_category=depopulated_area
}
